%YAML 1.1
%TAG !u! tag:unity3d.com,2011:
--- !u!1001 &8071136014897245903
PrefabInstance:
  m_ObjectHideFlags: 0
  serializedVersion: 2
  m_Modification:
    m_TransformParent: {fileID: 0}
    m_Modifications:
    - target: {fileID: 411051723175657057, guid: c309f1390cb1e5b489bf476080e77ee3, type: 3}
      propertyPath: m_Mass
      value: 0.375
      objectReference: {fileID: 0}
    - target: {fileID: 628225964474420470, guid: c309f1390cb1e5b489bf476080e77ee3, type: 3}
      propertyPath: m_Materials.Array.data[0]
      value: 
      objectReference: {fileID: 2100000, guid: f6dd63e989fa05046964a243fedb5c76, type: 2}
    - target: {fileID: 1129030916918119890, guid: c309f1390cb1e5b489bf476080e77ee3, type: 3}
      propertyPath: m_LocalPosition.x
      value: 0
      objectReference: {fileID: 0}
    - target: {fileID: 1129030916918119890, guid: c309f1390cb1e5b489bf476080e77ee3, type: 3}
      propertyPath: m_LocalPosition.y
      value: 0
      objectReference: {fileID: 0}
    - target: {fileID: 1129030916918119890, guid: c309f1390cb1e5b489bf476080e77ee3, type: 3}
      propertyPath: m_LocalPosition.z
      value: 0
      objectReference: {fileID: 0}
    - target: {fileID: 1129030916918119890, guid: c309f1390cb1e5b489bf476080e77ee3, type: 3}
      propertyPath: m_LocalRotation.x
      value: 0
      objectReference: {fileID: 0}
    - target: {fileID: 1129030916918119890, guid: c309f1390cb1e5b489bf476080e77ee3, type: 3}
      propertyPath: m_LocalRotation.y
      value: 0
      objectReference: {fileID: 0}
    - target: {fileID: 1129030916918119890, guid: c309f1390cb1e5b489bf476080e77ee3, type: 3}
      propertyPath: m_LocalRotation.z
      value: 0
      objectReference: {fileID: 0}
    - target: {fileID: 1129030916918119890, guid: c309f1390cb1e5b489bf476080e77ee3, type: 3}
      propertyPath: m_LocalRotation.w
      value: 1
      objectReference: {fileID: 0}
    - target: {fileID: 1129030916918119890, guid: c309f1390cb1e5b489bf476080e77ee3, type: 3}
      propertyPath: m_RootOrder
      value: 0
      objectReference: {fileID: 0}
    - target: {fileID: 1129030916918119890, guid: c309f1390cb1e5b489bf476080e77ee3, type: 3}
      propertyPath: m_LocalEulerAnglesHint.x
      value: 0
      objectReference: {fileID: 0}
    - target: {fileID: 1129030916918119890, guid: c309f1390cb1e5b489bf476080e77ee3, type: 3}
      propertyPath: m_LocalEulerAnglesHint.y
      value: 0
      objectReference: {fileID: 0}
    - target: {fileID: 1129030916918119890, guid: c309f1390cb1e5b489bf476080e77ee3, type: 3}
      propertyPath: m_LocalEulerAnglesHint.z
      value: 0
      objectReference: {fileID: 0}
    - target: {fileID: 1129030916918119890, guid: c309f1390cb1e5b489bf476080e77ee3, type: 3}
      propertyPath: m_LocalScale.x
      value: 0.5
      objectReference: {fileID: 0}
    - target: {fileID: 1129030916918119890, guid: c309f1390cb1e5b489bf476080e77ee3, type: 3}
      propertyPath: m_LocalScale.y
      value: 0.5
      objectReference: {fileID: 0}
    - target: {fileID: 1129030916918119890, guid: c309f1390cb1e5b489bf476080e77ee3, type: 3}
      propertyPath: m_LocalScale.z
      value: 0.5
      objectReference: {fileID: 0}
    - target: {fileID: 4980614245252033389, guid: c309f1390cb1e5b489bf476080e77ee3, type: 3}
      propertyPath: m_Name
      value: Cube2
      objectReference: {fileID: 0}
    - target: {fileID: 4980614245252033389, guid: c309f1390cb1e5b489bf476080e77ee3, type: 3}
      propertyPath: m_StaticEditorFlags
      value: 0
      objectReference: {fileID: 0}
    m_RemovedComponents: []
  m_SourcePrefab: {fileID: 100100000, guid: c309f1390cb1e5b489bf476080e77ee3, type: 3}
